<svg width="8" height="9" viewBox="0 0 8 9" fill="none" xmlns="http://www.w3.org/2000/svg">
<path d="M7.92006 2.82059L4.18428 6.54529C4.13091 6.59856 4.06951 6.62524 4.00004 6.62524C3.93058 6.62524 3.86906 6.59856 3.81566 6.54529L0.0801884 2.82059C0.0266733 2.76723 0 2.706 0 2.63672C0 2.56745 0.0267575 2.50614 0.0801884 2.45289L0.480906 2.05337C0.534337 2.00009 0.595826 1.97347 0.665289 1.97347C0.734751 1.97347 0.79624 2.00009 0.849671 2.05337L4.00004 5.19455L7.15053 2.05317C7.20393 1.9999 7.26545 1.97344 7.3348 1.97344C7.40437 1.97344 7.46586 2.00006 7.51926 2.05317L7.92004 2.45287C7.97344 2.50611 7.99997 2.56745 7.99997 2.63669C8 2.706 7.97347 2.76732 7.92006 2.82059Z" fill="#404041"/>
</svg>
