<svg width="28" height="21" viewBox="0 0 28 21" fill="none" xmlns="http://www.w3.org/2000/svg">
<path d="M18.8549 0.741895C18.4734 0.347103 17.8386 0.347103 17.4438 0.741895C17.0623 1.12335 17.0623 1.75822 17.4438 2.13878L24.5989 9.29394H0.987869C0.437472 9.29483 0 9.73231 0 10.2827C0 10.8331 0.437472 11.2848 0.987869 11.2848H24.5989L17.4438 18.4266C17.0623 18.8214 17.0623 19.4572 17.4438 19.8377C17.8386 20.2325 18.4743 20.2325 18.8549 19.8377L27.7039 10.9887C28.0987 10.6072 28.0987 9.97238 27.7039 9.59182L18.8549 0.741895Z" fill="#404041"/>
</svg>
