<svg width="16" height="16" viewBox="0 0 16 16" fill="none" xmlns="http://www.w3.org/2000/svg">
<path fill-rule="evenodd" clip-rule="evenodd" d="M13.9482 0.351983C14.4175 -0.117328 15.1784 -0.117328 15.6477 0.351983C16.117 0.821294 16.117 1.5822 15.6477 2.05151L9.69941 7.99981L15.6478 13.9482C16.1171 14.4175 16.1171 15.1784 15.6478 15.6477C15.1785 16.117 14.4176 16.117 13.9483 15.6477L7.99988 9.69934L2.05151 15.6477C1.5822 16.117 0.821294 16.117 0.351983 15.6477C-0.117328 15.1784 -0.117327 14.4175 0.351983 13.9482L6.30036 7.99981L0.352056 2.05151C-0.117255 1.5822 -0.117255 0.821294 0.352055 0.351983C0.821366 -0.117328 1.58227 -0.117328 2.05158 0.351983L7.99988 6.30028L13.9482 0.351983Z" fill="#062e66"/>
</svg>
